<?xml version="1.0" encoding="UTF-8" standalone="no"?>
<svg
   xmlns:dc="http://purl.org/dc/elements/1.1/"
   xmlns:cc="http://creativecommons.org/ns#"
   xmlns:rdf="http://www.w3.org/1999/02/22-rdf-syntax-ns#"
   xmlns:svg="http://www.w3.org/2000/svg"
   xmlns="http://www.w3.org/2000/svg"
   xmlns:sodipodi="http://sodipodi.sourceforge.net/DTD/sodipodi-0.dtd"
   xmlns:inkscape="http://www.inkscape.org/namespaces/inkscape"
   version="1.1"
   id="Capa_1"
   x="0px"
   y="0px"
   viewBox="0 0 258.406 258.406"
   style="enable-background:new 0 0 258.406 258.406;"
   xml:space="preserve"
   sodipodi:docname="agree - Copie.svg"
   inkscape:version="1.0 (4035a4fb49, 2020-05-01)"><metadata
   id="metadata41"><rdf:RDF><cc:Work
       rdf:about=""><dc:format>image/svg+xml</dc:format><dc:type
         rdf:resource="http://purl.org/dc/dcmitype/StillImage" /></cc:Work></rdf:RDF></metadata><defs
   id="defs39" /><sodipodi:namedview
   inkscape:document-rotation="0"
   pagecolor="#ffffff"
   bordercolor="#666666"
   borderopacity="1"
   objecttolerance="10"
   gridtolerance="10"
   guidetolerance="10"
   inkscape:pageopacity="0"
   inkscape:pageshadow="2"
   inkscape:window-width="1920"
   inkscape:window-height="1000"
   id="namedview37"
   showgrid="false"
   inkscape:zoom="2.0495319"
   inkscape:cx="167.76798"
   inkscape:cy="120.55911"
   inkscape:window-x="-11"
   inkscape:window-y="-11"
   inkscape:window-maximized="1"
   inkscape:current-layer="g858" />

<g
   id="g6">
</g>
<g
   id="g8">
</g>
<g
   id="g10">
</g>
<g
   id="g12">
</g>
<g
   id="g14">
</g>
<g
   id="g16">
</g>
<g
   id="g18">
</g>
<g
   id="g20">
</g>
<g
   id="g22">
</g>
<g
   id="g24">
</g>
<g
   id="g26">
</g>
<g
   id="g28">
</g>
<g
   id="g30">
</g>
<g
   id="g32">
</g>
<g
   id="g34">
</g>
<g
   id="g858"><g
     transform="rotate(180,129.203,129.203)"
     id="g867"><g
       id="g4">
	<path
   d="m 219.544,145.748 c 0,-11.706 -6.733,-21.862 -16.526,-26.819 4.779,-5.693 7.252,-12.841 6.984,-20.361 -0.567,-15.967 -14.285,-28.957 -30.579,-28.957 h -23.53 V 32.339 C 155.893,14.507 141.386,0 123.554,0 105.722,0 91.215,14.507 91.215,32.339 V 71.642 C 61.189,79.09 38.862,106.259 38.862,138.556 v 50.905 c 0,38.017 30.929,68.945 68.945,68.945 h 61.782 c 13.916,0 25.197,-10.694 25.683,-24.347 0.194,-5.467 -1.336,-10.7 -4.35,-15.112 10.105,-4.845 17.1,-15.175 17.1,-27.109 0,-7.012 -2.421,-13.464 -6.461,-18.582 10.576,-4.655 17.983,-15.23 17.983,-27.508 z M 105.215,32.339 c 0,-10.112 8.227,-18.339 18.339,-18.339 10.112,0 18.339,8.227 18.339,18.339 v 37.272 h -34.085 c -0.869,0 -1.731,0.034 -2.592,0.066 V 32.339 Z m 84.284,129.454 h -11.523 -52.083 c -3.866,0 -7,3.134 -7,7 0,3.866 3.134,7 7,7 h 52.083 c 8.848,0 16.046,7.198 16.046,16.046 0,8.848 -7.198,16.045 -16.046,16.045 h -52.083 c -3.866,0 -7,3.134 -7,7 0,3.866 3.134,7 7,7 h 44.134 c 3.083,0 5.962,1.223 8.104,3.442 2.141,2.218 3.259,5.143 3.149,8.235 -0.213,5.979 -5.458,10.844 -11.691,10.844 h -61.782 c -30.297,0 -54.945,-24.648 -54.945,-54.945 v -50.905 c 0,-30.297 24.648,-54.945 54.945,-54.945 h 71.616 c 8.843,0 16.285,6.933 16.587,15.454 0.157,4.405 -1.437,8.571 -4.487,11.732 -3.053,3.163 -7.154,4.905 -11.548,4.905 h -54.083 c -3.866,0 -7,3.134 -7,7 0,3.866 3.134,7 7,7 h 63.605 c 8.848,0 16.045,7.198 16.045,16.045 0,8.847 -7.196,16.047 -16.043,16.047 z"
   id="path2" />
</g><path
       style="fill:#ffff00;stroke-width:1.79992;stroke-linecap:round;stroke-linejoin:round;paint-order:markers fill stroke"
       d="m 101.23825,243.84812 c -12.926327,-1.68169 -24.574852,-7.62733 -33.3177,-17.00601 -8.516216,-9.13556 -13.373109,-19.92833 -14.65289,-32.56098 -0.465944,-4.5993 -0.465944,-56.05875 0,-60.65806 0.724892,-7.15537 2.402079,-13.08243 5.424331,-19.16919 7.775467,-15.659636 21.900405,-26.373164 39.334295,-29.834397 3.688154,-0.732228 3.923464,-0.736816 43.150084,-0.84139 34.57962,-0.09219 39.71237,-0.04238 41.63729,0.404041 6.6848,1.550309 11.72171,6.718932 12.8251,13.160464 1.32038,7.708332 -4.28514,15.989202 -12.03249,17.775262 -0.91532,0.21101 -12.03626,0.34316 -30.0789,0.35741 -23.03211,0.0182 -28.8693,0.10922 -29.86835,0.46574 -2.85015,1.01712 -4.51688,3.1626 -4.80942,6.19086 -0.254,2.62938 0.88796,4.89954 3.34694,6.65349 l 1.04947,0.74859 34.58363,0.17368 34.58363,0.17369 1.95922,0.73795 c 2.93208,1.10439 4.45681,2.10829 6.57415,4.32851 8.08788,8.48087 4.52048,22.11397 -6.79653,25.97344 -2.04446,0.69723 -2.456,0.7071 -36.48594,0.8752 -25.85849,0.12774 -34.58986,0.26859 -35.10859,0.56634 -1.17963,0.67713 -3.01621,2.9335 -3.44482,4.23222 -0.85253,2.58319 0.15965,6.12101 2.19549,7.67383 2.33258,1.77914 1.49387,1.73197 31.22829,1.75631 17.37297,0.0142 28.17305,0.14693 29.08606,0.35741 7.793,1.79658 13.35158,10.08217 12.0105,17.90277 -0.99992,5.83107 -4.87519,10.45921 -10.56741,12.62042 -1.88912,0.71725 -2.10512,0.72353 -30.69462,0.89212 -31.67862,0.18681 -29.613,0.0428 -31.67031,2.20864 -3.22926,3.39967 -2.22256,9.16134 1.96426,11.2421 1.1725,0.58272 2.66884,0.62831 25.73472,0.78416 l 24.48985,0.16547 1.86747,0.91736 c 2.08962,1.02648 4.16578,3.09222 5.28145,5.25494 1.11459,2.16064 1.25407,6.12285 0.30419,8.64126 -0.91652,2.42995 -3.31533,4.93468 -5.87454,6.13393 l -1.90952,0.8948 -34.58363,0.0437 c -19.02099,0.0241 -35.55163,-0.0822 -36.73476,-0.23613 z"
       id="path866" /><path
       style="fill:#ffff00;stroke-width:1.79992;stroke-linecap:round;stroke-linejoin:round;paint-order:markers fill stroke"
       d="m 105.28415,49.362809 c 0.11753,-19.664545 0.13607,-20.151946 0.84671,-22.255971 0.3996,-1.183124 1.1583,-2.895759 1.686,-3.805854 4.74743,-8.187602 15.01526,-11.362394 23.58257,-7.291682 4.0469,1.922863 7.66823,5.920941 9.3024,10.270176 0.74089,1.971806 0.74674,2.129431 0.83844,22.586915 l 0.0924,20.601252 H 123.39831 105.164 Z"
       id="path868" /><path
       style="fill:#ffff00;stroke-width:0.112495;stroke-linecap:round;stroke-linejoin:round;paint-order:markers fill stroke"
       d="m 141.62397,65.794935 c -9e-5,-0.236056 -0.0183,-4.412929 -0.0404,-9.28194 -0.0221,-4.869011 -0.0453,-10.044144 -0.0516,-11.500297 -0.006,-1.456153 -0.0169,-3.16646 -0.0237,-3.800683 l -0.0123,-1.153132 h 0.1985 0.19849 v 13.082622 13.082623 h -0.13445 -0.13444 l -1.7e-4,-0.429193 z"
       id="path874" /><path
       style="fill:#ffff00;stroke-width:0.159092;stroke-linecap:round;stroke-linejoin:round;paint-order:markers fill stroke"
       d="m 141.50827,39.589031 c -0.002,-2.472507 -0.0887,-7.946385 -0.14707,-9.265436 -0.10241,-2.315782 -0.22429,-2.994975 -0.79196,-4.413318 -0.34713,-0.867302 -1.15059,-2.404882 -1.61452,-3.089712 l -0.10898,-0.160884 0.12026,-0.0091 c 0.14398,-0.01093 0.11896,-0.04031 0.45311,0.532016 1.16651,1.997962 1.95485,4.280616 2.27697,6.592983 0.17727,1.272536 0.19167,1.746776 0.19228,6.332543 l 5.3e-4,3.94165 h -0.19014 -0.19013 l -3.5e-4,-0.460713 z"
       id="path876" /><path
       style="fill:#ffff00;stroke-width:0.22499;stroke-linecap:round;stroke-linejoin:round;paint-order:markers fill stroke"
       d="m 105.78647,244.34825 c -10.707898,-0.3909 -20.964157,-3.87971 -29.771052,-10.12701 -0.699731,-0.49637 -0.795178,-0.5776 -0.796334,-0.67772 -7.22e-4,-0.0626 0.007,-0.11377 0.01713,-0.11377 0.01014,0 0.256799,0.17382 0.548126,0.38626 4.186494,3.05288 8.955959,5.55101 13.974276,7.31939 3.425178,1.20698 6.838287,2.04393 10.672934,2.61717 0.38679,0.0578 1.03834,0.12215 1.44788,0.14295 2.49444,0.12671 16.08421,0.20578 35.50407,0.20657 l 14.86144,6e-4 v 0.14479 0.14479 l -22.80409,-0.006 c -12.54226,-0.004 -23.18672,-0.0205 -23.65438,-0.0375 z"
       id="path878" /></g></g></svg>
