<?xml version="1.0" encoding="UTF-8" standalone="no"?>
<svg
   xmlns:dc="http://purl.org/dc/elements/1.1/"
   xmlns:cc="http://creativecommons.org/ns#"
   xmlns:rdf="http://www.w3.org/1999/02/22-rdf-syntax-ns#"
   xmlns:svg="http://www.w3.org/2000/svg"
   xmlns="http://www.w3.org/2000/svg"
   xmlns:sodipodi="http://sodipodi.sourceforge.net/DTD/sodipodi-0.dtd"
   xmlns:inkscape="http://www.inkscape.org/namespaces/inkscape"
   version="1.1"
   id="svg2"
   xml:space="preserve"
   width="210mm"
   height="297mm"
   viewBox="0 0 793.70079 1122.5197"
   sodipodi:docname="enough2.svg"
   inkscape:version="1.0.2 (e86c870879, 2021-01-15, custom)"><metadata
     id="metadata8"><rdf:RDF><cc:Work
         rdf:about=""><dc:format>image/svg+xml</dc:format><dc:type
           rdf:resource="http://purl.org/dc/dcmitype/StillImage" /><dc:title></dc:title></cc:Work></rdf:RDF></metadata><defs
     id="defs6"><clipPath
       clipPathUnits="userSpaceOnUse"
       id="clipPath18"><path
         d="M 0,560 H 960 V 0 H 0 Z"
         id="path16" /></clipPath><clipPath
       clipPathUnits="userSpaceOnUse"
       id="clipPath338"><path
         d="M 0,560 H 960 V 0 H 0 Z"
         id="path336" /></clipPath></defs><sodipodi:namedview
     pagecolor="#ffffff"
     bordercolor="#666666"
     borderopacity="1"
     objecttolerance="10"
     gridtolerance="10"
     guidetolerance="10"
     inkscape:pageopacity="0"
     inkscape:pageshadow="2"
     inkscape:window-width="1920"
     inkscape:window-height="1027"
     id="namedview4"
     showgrid="false"
     inkscape:zoom="0.43944222"
     inkscape:cx="366.89644"
     inkscape:cy="472.90016"
     inkscape:window-x="-8"
     inkscape:window-y="-8"
     inkscape:window-maximized="1"
     inkscape:current-layer="g210"
     inkscape:document-rotation="0"
     units="mm" /><g
     id="g10"
     inkscape:groupmode="layer"
     inkscape:label="finger5"
     transform="matrix(1.3333333,0,0,-1.3333333,0,746.66667)"><g
       id="g14"
       clip-path="url(#clipPath18)"
       transform="matrix(5.389125,0,0,5.389125,-831.83432,-989.9385)"><g
         id="g210"
         transform="translate(-263.71211,-197.69997)"><g
           id="g386"
           transform="translate(-5.0945696,3.1351206)"><g
             id="g108"
             transform="translate(458.061,330.0186)"><path
               d="m 0,0 c 0,0 -10.596,4.754 -13.671,14.603 -3.077,9.847 -6.153,22.412 -6.153,22.412 l -4.443,10.527 c 0,0 0.232,5.771 2.421,8.748 1.13,1.538 1.68,3.424 1.68,5.333 v 16.482 l -1.709,24.11 -0.341,24.79 c 0,0 0.053,9.92 4.155,12.976 1.709,1.274 3.527,1.061 5.067,0.379 2.272,-1.006 3.825,-3.163 4.26,-5.609 l 1.556,-8.765 1.709,-25.808 c 0,0 1.408,-19.197 4.785,-20.375 5.022,-1.753 2.623,33.178 2.623,33.178 0,0 -0.824,29.98 2.162,33.041 4.838,4.959 9.57,3.395 11.962,-0.679 2.393,-4.075 2.876,-35.362 2.876,-35.362 l 2.935,-26.782 c 0,0 4.763,-4.146 7.065,25.782 0.709,9.214 1.5,23.098 1.9,29.821 0.335,5.635 6.144,9.457 11.33,7.226 0.315,-0.135 0.634,-0.38 0.957,-0.682 1.812,-1.691 2.793,-4.083 2.874,-6.56 0.092,-2.79 -0.049,-7.311 -0.884,-14.497 l -1.026,-35.657 6.153,0.34 c 0,0 16.405,-7.132 14.012,-14.603 V 56.032 l 0.684,-13.923 c 0,0 -3.418,-22.753 -6.152,-31.921 0,0 -4.102,-7.811 -9.912,-11.207 z"
               style="fill:none;stroke:#793f91;stroke-width:6;stroke-linecap:butt;stroke-linejoin:miter;stroke-miterlimit:10;stroke-dasharray:none;stroke-opacity:1"
               id="path110" /></g><g
             id="g112"
             transform="translate(437.8955,388.4272)"><path
               d="m 0,0 17.773,11.546 15.722,13.583 c 0,0 7.519,5.434 8.203,-5.093 0.683,-10.527 -6.153,-16.3 -6.153,-16.3 L 23.583,-7.131 c 0,0 -4.785,-7.471 -11.279,-8.15"
               style="fill:none;stroke:#793f91;stroke-width:6;stroke-linecap:butt;stroke-linejoin:miter;stroke-miterlimit:10;stroke-dasharray:none;stroke-opacity:1"
               id="path114" /></g><g
             id="g116"
             transform="translate(461.1367,379.5981)"><path
               d="M 0,0 C 0,0 23.925,-16.3 19.14,-33.958"
               style="fill:none;stroke:#793f91;stroke-width:4;stroke-linecap:butt;stroke-linejoin:miter;stroke-miterlimit:10;stroke-dasharray:none;stroke-opacity:1"
               id="path118" /></g><g
             id="g120"
             transform="translate(502.4932,418.6504)"><path
               d="m 0,0 -16.748,-13.244 c 0,0 -4.785,-7.131 4.443,-10.527 9.229,-3.396 23.242,7.131 22.9,10.188"
               style="fill:none;stroke:#793f91;stroke-width:6;stroke-linecap:butt;stroke-linejoin:miter;stroke-miterlimit:10;stroke-dasharray:none;stroke-opacity:1"
               id="path122" /></g><g
             id="g124"
             transform="translate(502.1514,394.8794)"><path
               d="M 0,0 C 0,0 2.734,-4.415 8.886,-6.452"
               style="fill:none;stroke:#793f91;stroke-width:4;stroke-linecap:butt;stroke-linejoin:miter;stroke-miterlimit:10;stroke-dasharray:none;stroke-opacity:1"
               id="path126" /></g><g
             id="g128"
             transform="translate(472.0742,390.1255)"><path
               d="M 0,0 C 0,0 14.696,-2.717 31.103,-14.942"
               style="fill:none;stroke:#793f91;stroke-width:4;stroke-linecap:butt;stroke-linejoin:miter;stroke-miterlimit:10;stroke-dasharray:none;stroke-opacity:1"
               id="path130" /></g><g
             id="g132"
             transform="translate(442.6807,403.709)"><path
               d="M 0,0 C 0,0 5.126,4.415 8.886,5.433"
               style="fill:none;stroke:#793f91;stroke-width:4;stroke-linecap:butt;stroke-linejoin:miter;stroke-miterlimit:10;stroke-dasharray:none;stroke-opacity:1"
               id="path134" /></g><g
             id="g140"
             transform="translate(439.9463,448.1943)"><path
               d="M 0,0 6.554,1.306"
               style="fill:none;stroke:#793f91;stroke-width:3;stroke-linecap:butt;stroke-linejoin:miter;stroke-miterlimit:10;stroke-dasharray:none;stroke-opacity:1"
               id="path142" /></g><g
             id="g144"
             transform="translate(464.8628,436.3091)"><path
               d="M 0,0 8.203,0.679"
               style="fill:none;stroke:#793f91;stroke-width:3;stroke-linecap:butt;stroke-linejoin:miter;stroke-miterlimit:10;stroke-dasharray:none;stroke-opacity:1"
               id="path146" /></g><g
             id="g148"
             transform="translate(464.1709,456.3384)"><path
               d="M 0,0 7.177,0.339"
               style="fill:none;stroke:#793f91;stroke-width:3;stroke-linecap:butt;stroke-linejoin:miter;stroke-miterlimit:10;stroke-dasharray:none;stroke-opacity:1"
               id="path150" /></g><g
             id="g152"
             transform="translate(490.1553,435.9692)"><path
               d="M 0,0 8.544,-0.679"
               style="fill:none;stroke:#793f91;stroke-width:3;stroke-linecap:butt;stroke-linejoin:miter;stroke-miterlimit:10;stroke-dasharray:none;stroke-opacity:1"
               id="path154" /></g><g
             id="g156"
             transform="translate(491.7588,454.9663)"><path
               d="M 0,0 7.37,-0.288"
               style="fill:none;stroke:#793f91;stroke-width:3;stroke-linecap:butt;stroke-linejoin:miter;stroke-miterlimit:10;stroke-dasharray:none;stroke-opacity:1"
               id="path158" /></g><g
             id="g140-7"
             transform="matrix(1.2932658,0.03175604,0.07996625,1.0052482,437.45761,426.80911)"><path
               d="m 2.1833877,0.3918901 6.554,1.306"
               style="fill:none;stroke:#793f91;stroke-width:3;stroke-linecap:butt;stroke-linejoin:miter;stroke-miterlimit:10;stroke-dasharray:none;stroke-opacity:1"
               id="path142-4" /></g></g></g></g><text
       transform="matrix(1,0,0,-1,85.3232,512)"
       style="font-variant:normal;font-weight:normal;font-stretch:normal;font-size:26px;font-family:'Acumin Variable Concept';-inkscape-font-specification:AcuminVariableConcept_194_100_0_;writing-mode:lr-tb;fill:#1d1d1b;fill-opacity:1;fill-rule:nonzero;stroke:none"
       id="text320"><tspan
         x="0 14.248 19.812 34.060001 48.256001 61.307999 69.732002 76.491997 84.629997 98.617996 104.182 117.546 129.636"
         y="0"
         sodipodi:role="line"
         id="tspan316" /><tspan
         x="18.615999 27.482 34.242001 41.105999 46.669998 60.917999 75.113998 88.166 180.076 193.23199 199.992 206.856 212.42 226.668 240.864 253.916 262.444 351.49399 365.664 372.42401 379.28799 384.85199 399.10001 413.29599 426.34799 434.87341 520.31201 527.66998 540.85199 553.43597 567.68402 581.93201 587.49597 600.18402 613.39203 706.44598 720.74597 734.73401 740.16803 751.50403"
         y="224.89999"
         sodipodi:role="line"
         id="tspan318" /></text></g></svg>
